# Alias OBJ Model File
# Exported from SketchUp, (c) 2000-2006 Google, Inc.
# File units = meters

mtllib map.mtl

g Mesh1 Component1 skpc303_1 Model

usemtl _auto_
v 1 -1 0
vt -3.26584 0.86122
vn 0 0 1
v -1 1 0
vt -1.62542 2.50164
v -1 -1 0
vt -1.62542 0.86122
f 1/1/1 2/2/1 3/3/1

v 1 1 0
vt -3.26584 2.50164
f 2/2/1 1/1/1 4/4/1

usemtl _auto_1
v 2.87 2.39 0.779537
vt 7.28346 9.35228
vn -0.384771 -7.67398e-017 0.923012
vt 5.00328 6.02883
vt 1.72244 6.02883
f 5/5/2 4/6/2 1/7/2

vt -9.6024 6.97395
vn 0.000210437 -0.489362 0.872081
v -2.98172 2.39 0.780949
vt -0.00313206 6.97868
vt -6.53384 4.36082
f 5/8/3 6/9/3 4/10/3

vt -6.53169 4.36198
vn -1.31188e-016 -0.48982 0.871824
vt -5.60687e-016 6.9774
vt -3.25085 4.36198
f 4/11/4 6/12/4 2/13/4

vt -5.00368 -3.02394
vn 0.366608 -4.48789e-005 0.930375
vt -7.28346 0.470485
v -2.98172 -2.05 0.780735
vt 2.60002e-016 0.469527
f 2/14/5 6/15/5 7/16/5

vt -5.00328 -3.02459
vn 0.366548 2.06635e-016 0.930399
vt -2.06869e-017 0.469451
vt -1.72244 -3.02459
f 2/17/6 7/18/6 3/19/6

v 2.87 -2.05 0.780833
vt 9.59927 0.764478
vn -1.20302e-005 0.59671 0.802457
vt 3.25088 -1.38213
vt 1.44018e-016 0.764227
f 8/20/7 3/21/7 7/22/7

vt 6.53172 -1.38208
f 3/21/7 8/20/7 1/23/7

vt 7.29017 9.34644
vn -0.385187 0.000269337 0.922838
vt 1.72701 6.02658
vt 0.00671217 9.35196
f 5/24/8 1/25/8 8/26/8

