#
## Alias OBJ Material File
# Exported from SketchUp, (c) 2000-2006 Google, Inc.

newmtl _auto_
Ka 0.000000 0.000000 0.000000
Kd 0.615686 0.619608 0.603922
Ks 0.330000 0.330000 0.330000
map_Kd map/_auto_.jpg

newmtl _auto_1
Ka 0.000000 0.000000 0.000000
Kd 0.564706 0.627451 0.356863
Ks 0.330000 0.330000 0.330000
map_Kd map/_auto_1.jpg

