# Alias OBJ Model File
# Exported from SketchUp, (c) 2000-2006 Google, Inc.
# File units = meters

mtllib paddle_enemy.mtl

g Mesh1 paddle_enemy1 Model

usemtl enemy
v -0.96 -2.25597e-017 0.08
vt 5.13158 3.52137
vn -0.894427 4.96507e-016 0.447214
v -1 0.130342 0
vt 0 0
v -1 -0.130342 0
vt 10.2632 0
f 1/1/1 2/2/1 3/3/1

vt -1.5748 6.02106
vn 4.29471e-016 0.523099 0.852272
v -0.96 0.130342 0
vt -1.5748 -3.56883e-016
f 1/4/2 4/5/2 2/2/2

vt -5.36778 2.84166
vn 0.862525 0.264696 0.431262
v -0.92 -9.02389e-017 0
vt -5.8298 -0.649268
vt -0.462016 -0.649268
f 1/6/3 5/7/3 4/8/3

vt -4.44375 1.54312
vn 0.862525 -0.264696 0.431262
v -0.96 -0.130342 0
vt -9.34952 -1.9478
vt -3.98174 -1.9478
f 1/9/4 6/10/4 5/11/4

vt 1.5748 -8.74701
vn -2.90378e-016 -0.523099 0.852272
vt 1.5748 -2.72595
vt 0 -8.74701
f 6/12/5 1/13/5 3/14/5

